{
  "culture": "zh-Hant",
  "texts": {
    "Permissions": "權限",
    "Permission:Edit": "編輯",
    "Permission:Create": "建立",
    "Permission:Delete": "刪除",
    "Permission:ApiResources": "Api資源",
    "Permission:IdentityResources": "Identity資源",
    "Permission:Clients": "客戶端",
    "Permission:ManagePermissions": "管理許可權",
    "Permission:IdentityServer": "Identity Server",
    "Permission:ViewChangeHistory": "檢視變更記錄",
    "Id": "Id",
    "ClientId": "客戶端Id",
    "Resources": "資源",
    "Tokens": "Tokens",
    "IdentityProviderRestrictions": "限制",
    "Details": "詳情",
    "Properties": "屬性",
    "GrantTypes": "GrantType",
    "AllowRememberConsent": "允許記住許可",
    "AllowOfflineAccess": "允許離線訪問",
    "ApplicationUrls": "應用程式Urls",
    "ApplicationUrl": "應用程式Url",
    "PairWiseSubjectSalt": "Pair Wise Subject Salt",
    "UserSsoLifetime": "User Sso Lifetime",
    "UserCodeType": "User Code Type",
    "DeviceCodeLifetime": "Device Code Type",
    "CustomGrantType": "自定義GrantType",
    "IncludeJwtId": "包含Jwt Id",
    "AccessTokenType": "Access Token型別",
    "ConsentLifetime": "許可生命週期",
    "ClientName": "客戶名稱",
    "ClientUri": "客戶 Uri",
    "LogoUri": "Logo Uri",
    "LogoutUrl": "Logout Url",
    "CallbackUrl": "Callback Url",
    "SignoutUrl": "Signout Url",
    "FrontChannelLogoutUri": "Front channel logout uri",
    "FrontChannelLogoutSessionRequired": "Front channel logout session required",
    "BackChannelLogoutUri": "Back channel logout uri",
    "BackChannelLogoutSessionRequired": "Back channel logout session required",
    "AllowedCorsOrigins": "允許的CORS來源",
    "RequireConsent": "需要許可",
    "RequirePkce": "要求Pkce",
    "RequireClientSecret": "RequireClientSecret",
    "AlwaysSendClientClaims": "始終發送客戶聲明",
    "EnableLocalLogin": "啟用本地登錄",
    "AccessTokenLifetime": "Access Token生命週期",
    "Menu:IdentityServer": "Identity Server",
    "Menu:IdentityResources": "Identity資源",
    "Menu:ApiResources": "Api資源",
    "Menu:Clients": "客戶",
    "Clients": "客戶",
    "CreateANewResource": "建立新資源",
    "CreateANewClient": "建立新客戶",
    "IdentityResources": "Identity資源",
    "ApiResources": "Api資源",
    "NotOwnedClaims": "不擁有聲明:",
    "OwnedClaims": "擁有聲明:",
    "Claims": "聲明",
    "DisplayName": "顯示名稱",
    "Description": "描述",
    "Name": "名稱",
    "Type": "型別",
    "Value": "值",
    "Expiration": "到期",
    "AddNew": "新增一個新的",
    "Secrets": "Secrets",
    "ShowInDiscoveryDocument": "在發現文件中顯示",
    "Required": "必要",
    "Enabled": "啟用",
    "Add": "新增",
    "Info": "資訊",
    "Scopes": "範圍",
    "Create": "建立",
    "Delete": "刪除",
    "Edit": "編輯",
    "Emphasize": "強調",
    "CreateStandardResources": "建立標準資源",
    "CreateStandardIdentityResourcesWarningMessage": "這將建立所有標準身份資源並分配給標準聲明. 如果您不需要其中任何一個,可以稍後刪除. 你想繼續嗎?",
    "ApiResourcesDeletionWarningMessage": "該Api資源將被刪除. 你想繼續嗎?",
    "IdentityResourcesDeletionWarningMessage": "該身份資源將被刪除. 你想繼續嗎?",
    "ClientsDeletionWarningMessage": "該客戶端將被刪除. 你想繼續嗎?",
    "MissingRequiredField": "'{0}'欄位是必填欄位!",
    "ChangeHistory": "變更記錄"
  }
}