﻿{
  "culture": "tr",
  "texts": {
    "Permission:AuditLogging": "İşlem Kayıtları",
    "Permission:AuditLogs": "İşlem Kayıtlarına erişim",
    "Actions": "Aksiyonlar",
    "AuditLogs": "Kullanıcı işlem logları",
    "BrowserInfo": "Tarayıcı Bilgisi",
    "Changes": "Değişiklikler",
    "ChangeTime": "Değişiklik Tarihi",
    "ChangeType": "Değişiklik Türü",
    "ClientIpAddress": "İstemci Ip Adresi",
    "ClientName": "İstemci Adı",
    "Comments": "Yorumlar",
    "Detail": "Detay",
    "Duration": "Süre",
    "Entity": "Entity",
    "EntityTypeFullName": "Entity Tipi",
    "Exceptions": "Hatalar",
    "ExecutionDuration": "Geçen Süre",
    "HasException": "Hata var mı?",
    "MaxDuration": "Max. süre",
    "MinDuration": "Min. süre",
    "ExecutionTime": "İşlem Tarihi",
    "HttpMethod": "Http Metodu",
    "HttpMethodFilter": "Http Method Filtresi",
    "HttpRequest": "Http İstemi",
    "HttpStatus": "Http Durumu",
    "HttpStatusCode": "Http Durum Kodu",
    "HttpStatusCodeFilter": "Http Durum Kodu Filtresi",
    "CorrelationId": "Korelasyon ID",
    "ApplicationName": "Uygulama ismi",
    "IpAddress": "Ip Adresi",
    "Menu:AuditLogging": "Kullanıcı işlem logları",
    "MethodName": "Method",
    "ExtraProperties": "Ekstra özellikler",
    "NewValue": "Yeni Değer",
    "{0}Milliseconds": "{0} milisaniye",
    "OriginalValue": "İlk Değer",
    "Overall": "Genel",
    "Parameters": "Parametreler",
    "PropertyName": "Property Adı",
    "PropertyTypeFullName": "Property Türü",
    "ServiceName": "Servis",
    "Time": "Tarih",
    "Url": "Url",
    "UserName": "Kullanıcı adı",
    "UrlFilter": "Url Filtresi",
    "User": "Kullanıcı",
    "Yes": "Evet",
    "No": "Hayır",
    "UserNameFilter": "Kullanıcı Filtresi",
    "AverageExecutionDurationInLogsPerDay": "Ortalama işlem süresi",
    "AverageExecutionDurationInMilliseconds": "Milisaniye cinsinden ortalama işlem süresi",
    "ErrorRateInLogs": "Loglardaki hata oranı",
    "Success": "Başarılı",
    "Fault": "Hatalı",
    "NoChanges": "Değişiklik yok",
    "EntityChanges": "Entity Değişiklikleri",
    "EntityId": "Entity Id",
    "EntityChangeStartTime": "Min Değişiklik Tarihi",
    "EntityChangeEndTime": "Max Değişiklik Tarihi",
    "EntityHistory": "Entity Geçmişi",
    "DaysAgoTitle": "{1} {0}.",
    "DaysAgoWithUserTitle": "{1} {2} tarafından {0}.",
    "Created": "Oluşturuldu",
    "Updated": "Güncellendi",
    "Deleted": "Silindi",
    "ChangeHistory": "Değişiklik Geçmişi",
    "FullChangeHistory": "Tüm Değişiklik Geçmişi",
    "ChangeDetails": "Değişiklik Detayı",
    "DurationMs": "Süre (ms)"
  }
}