{
  "culture": "es",
  "texts": {
    "Volo.Saas:DuplicateTenantName": "",
    "Menu:Saas": "Saas",
    "Tenants": "Inquilinos",
    "NewTenant": "Nuevo tenant",
    "TenantName": "Nombre de tenant",
    "DisplayName:TenantName": "Nombre de tenant",
    "TenantDeletionConfirmationMessage": "El tenant '{0}' será eliminado. Esta seguro?",
    "EditionDeletionConfirmationMessage": "La edicion '{0}' sera eliminada. Esta seguro?",
    "ConnectionStrings": "Cadena de conexión",
    "DisplayName:DefaultConnectionString": "Cadena de conexión por defecto",
    "DisplayName:UseSharedDatabase": "Usar la base de datos compartida",
    "DisplayName:EditionId": "Edicion",
    "Edition": "Edicion",
    "Editions": "Ediciones",
    "NewEdition": "Nueva edicion",
    "EditionName": "Nombre de edicion",
    "Name": "Nombre",
    "LatestTenants": "Ultimos tenants(inquilinos)",
    "EditionUsageStatistics": "Estadisticas de uso de edicion",
    "DisplayName:AdminEmailAddress": "Dirección de correo electronico de admin de tenant",
    "DisplayName:AdminPassword": "Contraseña de administrador del tenant",
    "ChangeHistory": "Canbiar historia",
    "ManageHostFeatures": "Administrar funcionalidades del host"
  }
}