{
  "culture": "tr",
  "texts": {
    "Volo.Saas:DuplicateTenantName": "Müşteri ismi zaten mevcut: {Name}",
    "Menu:Saas": "SaaS",
    "Tenants": "Müşteriler",
    "NewTenant": "Yeni müşteri",
    "TenantName": "Müşteri adı",
    "DisplayName:TenantName": "Müşteri adı",
    "TenantDeletionConfirmationMessage": "'{0}' isimli müşteri silinecektir. Onaylıyor musunuz?",
    "EditionDeletionConfirmationMessage": "{0} isimli sürüm silinecektir. Bunu onaylıyor musunuz? ",
    "ConnectionStrings": "Bağlantı cümlesi",
    "DisplayName:DefaultConnectionString": "Varsayılan bağlantı cümlesi",
    "DisplayName:UseSharedDatabase": "Paylaşılan veritabanını kullan",
    "DisplayName:EditionId": "Paket",
    "Edition": "Paket",
    "Editions": "Paketler",
    "NewEdition": "Yeni paket",
    "EditionName": "Paket adı",
    "Name": "Adı",
    "LatestTenants": "Son müşteriler",
    "EditionUsageStatistics": "Paket kullanım istatistiği",
    "DisplayName:AdminEmailAddress": "Admin Eposta Adresi",
    "DisplayName:AdminPassword": "Admin Şifresi",
    "ChangeHistory": "Değişiklik Geçmişi",
    "ManageHostFeatures": "Host özelliklerini düzenle"
  }
}
